{
  "name": "UserFollowOranization",
  "base": "PersistedModel",
  "idInjection": true,
  "options": {
    "validateUpsert": true,
    "strictObjectIDCoercion": true
  },
  "properties": {},
  "validations": [],
  "relations": {
    "organization": {
      "type": "belongsTo",
      "model": "Organization",
      "foreignKey": "",
      "options": {
        "nestRemoting": true
      }
    },
    "attendeeUser": {
      "type": "belongsTo",
      "model": "AttendeeUser",
      "foreignKey": "",
      "options": {
        "nestRemoting": true
      }
    }
  },
  "acls": [],
  "methods": {}
}
